Tibbles and Data Transformation
…
Data transformation

Tibbles and data frames

First look

library(dplyr)
starwars

First look

library(dplyr)
starwars

## # A tibble: 87 x 13
##    name  height  mass hair_color skin_color eye_color birth_year gender
##    <chr>  <int> <dbl> <chr>      <chr>      <chr>          <dbl> <chr> 
##  1 Luke    172    77 blond      fair       blue            19   male  
##  2 C-3PO    167    75 <NA>       gold       yellow         112   <NA>  
##  3 R2-D2     96    32 <NA>       white, bl red             33   <NA>  
##  4 Dart    202   136 none       white      yellow          41.9 male  
##  5 Leia    150    49 brown      light      brown           19   female
##  6 Owen    178   120 brown, gr light      blue            52   male  
##  7 Beru    165    75 brown      light      blue            47   female
##  8 R5-D4     97    32 <NA>       white, red red             NA   <NA>  
##  9 Bigg    183    84 black      light      brown           24   male  
## 10 Obi-    182    77 auburn, w fair       blue-gray       57   male  
## # ... with 77 more rows, and 5 more variables: homeworld <chr>,
## #   species <chr>, films <list>, vehicles <list>, starships <list>
…
Coding style

a variable is an object

a function is a verb

the pipe %>% connects objects and verbs

diamonds %>% 
  filter(cut == "Ideal") %>% 
  select(carat, clarity)

Coding style

## # A tibble: 21,551 x 2
##    carat clarity
##    <dbl> <ord>  
##  1  0.23 SI2    
##  2  0.23 VS1    
##  3  0.31 SI2    
##  4  0.3  SI2    
##  5  0.33 SI2    
##  6  0.33 SI2    
##  7  0.33 SI1    
##  8  0.23 VS1    
##  9  0.32 SI1    
## 10  0.3  SI2    
## # ... with 21,541 more rows
…
Data transformation

Select variables

select selects all given, unquoted variables

there are special functions to help with selection

diamonds

## # A tibble: 53,940 x 10
##    carat cut       color clarity depth table price     x     y     z
##    <dbl> <ord>     <ord> <ord>   <dbl> <dbl> <int> <dbl> <dbl> <dbl>
##  1 0.23  Ideal     E     SI2      61.5    55   326  3.95  3.98  2.43
##  2 0.21  Premium   E     SI1      59.8    61   326  3.89  3.84  2.31
##  3 0.23  Good      E     VS1      56.9    65   327  4.05  4.07  2.31
##  4 0.290 Premium   I     VS2      62.4    58   334  4.2   4.23  2.63
##  5 0.31  Good      J     SI2      63.3    58   335  4.34  4.35  2.75
##  6 0.24  Very Good J     VVS2     62.8    57   336  3.94  3.96  2.48
##  7 0.24  Very Good I     VVS1     62.3    57   336  3.95  3.98  2.47
##  8 0.26  Very Good H     SI1      61.9    55   337  4.07  4.11  2.53
##  9 0.22  Fair      E     VS2      65.1    61   337  3.87  3.78  2.49
## 10 0.23  Very Good H     VS1      59.4    61   338  4     4.05  2.39
## # ... with 53,930 more rows

select: drop variables

diamonds %>% 
  select(-x, -y, -z)

## # A tibble: 53,940 x 7
##    carat cut       color clarity depth table price
##    <dbl> <ord>     <ord> <ord>   <dbl> <dbl> <int>
##  1 0.23  Ideal     E     SI2      61.5    55   326
##  2 0.21  Premium   E     SI1      59.8    61   326
##  3 0.23  Good      E     VS1      56.9    65   327
##  4 0.290 Premium   I     VS2      62.4    58   334
##  5 0.31  Good      J     SI2      63.3    58   335
##  6 0.24  Very Good J     VVS2     62.8    57   336
##  7 0.24  Very Good I     VVS1     62.3    57   336
##  8 0.26  Very Good H     SI1      61.9    55   337
##  9 0.22  Fair      E     VS2      65.1    61   337
## 10 0.23  Very Good H     VS1      59.4    61   338
## # ... with 53,930 more rows

select: : picks adjacent variables

diamonds %>% 
  select(carat:price)

## # A tibble: 53,940 x 7
##    carat cut       color clarity depth table price
##    <dbl> <ord>     <ord> <ord>   <dbl> <dbl> <int>
##  1 0.23  Ideal     E     SI2      61.5    55   326
##  2 0.21  Premium   E     SI1      59.8    61   326
##  3 0.23  Good      E     VS1      56.9    65   327
##  4 0.290 Premium   I     VS2      62.4    58   334
##  5 0.31  Good      J     SI2      63.3    58   335
##  6 0.24  Very Good J     VVS2     62.8    57   336
##  7 0.24  Very Good I     VVS1     62.3    57   336
##  8 0.26  Very Good H     SI1      61.9    55   337
##  9 0.22  Fair      E     VS2      65.1    61   337
## 10 0.23  Very Good H     VS1      59.4    61   338
## # ... with 53,930 more rows

select: special functions

see manual

diamonds %>% 
  select(carat, ends_with("e"))

## # A tibble: 53,940 x 3
##    carat table price
##    <dbl> <dbl> <int>
##  1 0.23     55   326
##  2 0.21     61   326
##  3 0.23     65   327
##  4 0.290    58   334
##  5 0.31     58   335
##  6 0.24     57   336
##  7 0.24     57   336
##  8 0.26     55   337
##  9 0.22     61   337
## 10 0.23     61   338
## # ... with 53,930 more rows
…
Vectorized functions return one value for each entry

examples: x + y, log(x), ==

Exercise 5

Solve exercises 2 and 3 in: https://r4ds.had.co.nz/transform.html#exercises-10

Group the data frame

diamonds %>% 
  group_by(cut)

## # A tibble: 53,940 x 10
## # Groups:   cut [5]
##    carat cut       color clarity depth table price     x     y     z
##    <dbl> <ord>     <ord> <ord>   <dbl> <dbl> <int> <dbl> <dbl> <dbl>
##  1 0.23  Ideal     E     SI2      61.5    55   326  3.95  3.98  2.43
##  2 0.21  Premium   E     SI1      59.8    61   326  3.89  3.84  2.31
##  3 0.23  Good      E     VS1      56.9    65   327  4.05  4.07  2.31
##  4 0.290 Premium   I     VS2      62.4    58   334  4.2   4.23  2.63
##  5 0.31  Good      J     SI2      63.3    58   335  4.34  4.35  2.75
##  6 0.24  Very Good J     VVS2     62.8    57   336  3.94  3.96  2.48
##  7 0.24  Very Good I     VVS1     62.3    57   336  3.95  3.98  2.47
##  8 0.26  Very Good H     SI1      61.9    55   337  4.07  4.11  2.53
##  9 0.22  Fair      E     VS2      65.1    61   337  3.87  3.78  2.49
## 10 0.23  Very Good H     VS1      59.4    61   338  4     4.05  2.39
## # ... with 53,930 more rows
…
